{
    "inputMessageMetadata": {
        "messagePayload": {
            "connectorName": "#_custom_mule_metadata_type_#",
            "typeId": "commit"
        }
    },
    "outputMessageMetadata": {},
    "id": "01af0e2e-7de5-4bbb-b7c7-7b6503aa4a3d",
    "version": "5.2.0.0"
}