{
    "inputMessageMetadata": {},
    "outputMessageMetadata": {
        "messagePayload": {
            "connectorName": "#_custom_mule_metadata_type_#",
            "typeId": "commit"
        }
    },
    "id": "3f07aed1-a9a0-4598-a922-aa3d4532b407",
    "version": "5.2.0.0"
}