{
    "inputMessageMetadata": {
        "messagePayload": {
            "connectorName": "#_custom_mule_metadata_type_#",
            "typeId": "commit"
        }
    },
    "outputMessageMetadata": {},
    "id": "7b53b0b3-a4ae-4a83-b56c-89303eda5818",
    "version": "5.2.0.0"
}