{
    "inputMessageMetadata": {
        "messagePayload": {
            "connectorName": "#_custom_mule_metadata_type_#",
            "typeId": "commit"
        }
    },
    "outputMessageMetadata": {},
    "id": "7ea9b32d-683a-4116-8e5d-3e7ae6c116a7",
    "version": "5.2.0.0"
}